{
  "users": [
    {
      "key": "0c8057a6405447838aadbcae87281734",
      "fullName": "Jan L",
      "email": "Jan@wfh.com",
      "password": "string3",
      "role": "User"
    },
    {
      "key": "bc4fcdd28b7c4be4837fa828d707fe10",
      "fullName": "Jordan T",
      "email": "jord@gg.com",
      "password": "string1",
      "role": "Admin"
    },
    {
      "key": "f6c28a1cd95049f9ba690ab4f501bf9a",
      "fullName": "Rico A",
      "email": "rico@wfh.com",
      "password": "string2",
      "role": "User2"
    }
  ],
  "policies": [
    {
      "key": "663ca06d68db415bb02ac96335d06c41",
      "policy": "User",
      "userKey": "bc4fcdd28b7c4be4837fa828d707fe10"
    },
    {
      "key": "347a9849918f43fe810377bb9e0d831a",
      "policy": "UserPolicy",
      "userKey": "bc4fcdd28b7c4be4837fa828d707fe10"
    },
    {
      "key": "fa0ff20458304edfb485ecc9c4c3ee06",
      "policy": "UserPolicy",
      "userKey": "f6c28a1cd95049f9ba690ab4f501bf9a"
    },
    {
      "key": "71c56cddb38b4bb79a231b995baa4360",
      "policy": "Virus",
      "userKey": "0c8057a6405447838aadbcae87281734"
    },
    {
      "key": "d39bf9cd974a4fc396878e5d329fcb79",
      "policy": "Virus",
      "userKey": "bc4fcdd28b7c4be4837fa828d707fe10"
    },
    {
      "key": "e06257faa1594cb78291e8d3be702bfe",
      "policy": "Virus",
      "userKey": "f6c28a1cd95049f9ba690ab4f501bf9a"
    }
  ]
}
